*** Life<ConwayCell> 15x15 ***

Generation = 0, Population = 24.
...............
*..***.....*...
..*..*......*..
*........*.....
...............
*......*.*.....
..**.......*...
...............
...............
..*..*..*......
..*.....*...*..
...............
.............*.
*..............
...............

Generation = 1, Population = 8.
....*..........
...***.........
.*.*.*.........
...............
........*......
...............
...............
...............
...............
...............
...............
...............
...............
...............
...............

Generation = 2, Population = 9.
...***.........
..**.*.........
..**.*.........
...............
...............
...............
...............
...............
...............
...............
...............
...............
...............
...............
...............

Generation = 3, Population = 7.
..**.*.........
.....**........
..**...........
...............
...............
...............
...............
...............
...............
...............
...............
...............
...............
...............
...............

Generation = 4, Population = 5.
....***........
.....**........
...............
...............
...............
...............
...............
...............
...............
...............
...............
...............
...............
...............
...............

Generation = 5, Population = 4.
....*.*........
....*.*........
...............
...............
...............
...............
...............
...............
...............
...............
...............
...............
...............
...............
...............

*** Life<ConwayCell> 15x15 ***

Generation = 0, Population = 22.
...............
...............
...*...........
.......*....*..
*...****.......
...............
...............
........***....
.*.*.....*.....
*............*.
.....*...*.....
...............
*..**......*...
...............
...............

Generation = 1, Population = 16.
...............
...............
...............
....**.*.......
.....***.......
.....**........
.........*.....
........***....
........***....
...............
...............
....*..........
...............
...............
...............

Generation = 2, Population = 12.
...............
...............
...............
....**.*.......
.......*.......
.....*.*.......
........***....
...............
........*.*....
.........*.....
...............
...............
...............
...............
...............

Generation = 3, Population = 14.
...............
...............
...............
......*........
....**.**......
......**.*.....
........**.....
........*.*....
.........*.....
.........*.....
...............
...............
...............
...............
...............

Generation = 4, Population = 14.
...............
...............
...............
.....***.......
.....*..*......
.....**..*.....
..........*....
........*.*....
........***....
...............
...............
...............
...............
...............
...............

Generation = 5, Population = 16.
...............
...............
......*........
.....***.......
....*...*......
.....**..*.....
..........*....
........*.**...
........*.*....
.........*.....
...............
...............
...............
...............
...............

*** Life<ConwayCell> 15x15 ***

Generation = 0, Population = 22.
...*...........
.....*.........
...............
*....*.....*...
...........*...
.....*.........
.*......*....*.
......*......*.
.*.....*.......
...............
*..*......*....
*.*.......*.*..
...*...........
...............
...............

Generation = 1, Population = 7.
...............
...............
...............
...............
...............
...............
...............
.......*.......
...............
...............
.*.........*...
.***.......*...
...............
...............
...............

Generation = 2, Population = 4.
...............
...............
...............
...............
...............
...............
...............
...............
...............
...............
.*.............
.**............
..*............
...............
...............

Generation = 3, Population = 6.
...............
...............
...............
...............
...............
...............
...............
...............
...............
...............
.**............
.**............
.**............
...............
...............

Generation = 4, Population = 6.
...............
...............
...............
...............
...............
...............
...............
...............
...............
...............
.**............
*..*...........
.**............
...............
...............

Generation = 5, Population = 6.
...............
...............
...............
...............
...............
...............
...............
...............
...............
...............
.**............
*..*...........
.**............
...............
...............

*** Life<ConwayCell> 15x15 ***

Generation = 0, Population = 24.
.........*.....
.........*.....
*..........*...
**......*......
.*...*....**...
...*...........
.....*.........
......**...*...
...............
.........*.....
.........*..*..
.......**......
.**............
..........*....
...............

Generation = 1, Population = 15.
...............
..........*....
**.............
**........**...
***............
....*..........
......*........
......*........
...............
...............
.........*.....
........*......
...............
...............
...............

Generation = 2, Population = 8.
...............
...............
**........**...
...............
*.*............
.*.............
.....*.........
...............
...............
...............
...............
...............
...............
...............
...............

Generation = 3, Population = 3.
...............
...............
...............
*..............
.*.............
.*.............
...............
...............
...............
...............
...............
...............
...............
...............
...............

Generation = 4, Population = 2.
...............
...............
...............
...............
**.............
...............
...............
...............
...............
...............
...............
...............
...............
...............
...............

Generation = 5, Population = 0.
...............
...............
...............
...............
...............
...............
...............
...............
...............
...............
...............
...............
...............
...............
...............

*** Life<ConwayCell> 15x15 ***

Generation = 0, Population = 22.
..*.*..*.....*.
....*..........
...............
...............
..*...*..*.....
.*.............
.*....*........
......*........
*.*.....*......
...............
.*.............
......*..*..*..
......*........
..*..*.........
...............

Generation = 1, Population = 9.
...*...........
...*...........
...............
...............
...............
.**............
...............
.*.....*.......
...............
.*.............
...............
...............
.....**........
...............
...............

Generation = 2, Population = 2.
...............
...............
...............
...............
...............
...............
.**............
...............
...............
...............
...............
...............
...............
...............
...............

Generation = 3, Population = 0.
...............
...............
...............
...............
...............
...............
...............
...............
...............
...............
...............
...............
...............
...............
...............

Generation = 4, Population = 0.
...............
...............
...............
...............
...............
...............
...............
...............
...............
...............
...............
...............
...............
...............
...............

Generation = 5, Population = 0.
...............
...............
...............
...............
...............
...............
...............
...............
...............
...............
...............
...............
...............
...............
...............

*** Life<ConwayCell> 15x15 ***

Generation = 0, Population = 24.
.......*.*.....
..*............
*.*.......*....
.........*...*.
.*........*....
........*.*.*..
...............
.**............
..*.......*....
...............
.*.......*.*...
....**.........
.........*..*..
...............
...............

Generation = 1, Population = 15.
...............
.*.............
.*.............
.*.......**....
..........**...
.........*.*...
...............
.**............
.**............
..........*....
...............
..........*....
...............
...............
...............

Generation = 2, Population = 12.
...............
...............
***............
.........***...
...........*...
...........*...
...............
.**............
.**............
...............
...............
...............
...............
...............
...............

Generation = 3, Population = 12.
...............
.*.............
.*........*....
.*........**...
...........**..
...............
...............
.**............
.**............
...............
...............
...............
...............
...............
...............

Generation = 4, Population = 14.
...............
...............
***.......**...
..........*.*..
..........***..
...............
...............
.**............
.**............
...............
...............
...............
...............
...............
...............

Generation = 5, Population = 14.
...............
.*.............
.*........**...
.*.......*..*..
..........*.*..
...........*...
...............
.**............
.**............
...............
...............
...............
...............
...............
...............

*** Life<ConwayCell> 15x15 ***

Generation = 0, Population = 23.
...........*...
*..............
.......*.......
......*........
*..*.........*.
..*............
...............
....**.........
.**............
...*...........
..*.....*......
.........*..*..
..*.*....**....
......*......*.
...............

Generation = 1, Population = 11.
...............
...............
...............
...............
...............
...............
...............
...............
..***..........
.*.*...........
...............
...*....***....
.........**....
...............
...............

Generation = 2, Population = 12.
...............
...............
...............
...............
...............
...............
...............
...*...........
..***..........
...**..........
..*......*.....
........*.*....
........*.*....
...............
...............

Generation = 3, Population = 9.
...............
...............
...............
...............
...............
...............
...............
..***..........
..*............
....*..........
...*.....*.....
........*.*....
...............
...............
...............

Generation = 4, Population = 8.
...............
...............
...............
...............
...............
...............
...*...........
..**...........
..*.*..........
...*...........
.........*.....
.........*.....
...............
...............
...............

Generation = 5, Population = 7.
...............
...............
...............
...............
...............
...............
..**...........
..*.*..........
..*.*..........
...*...........
...............
...............
...............
...............
...............

*** Life<ConwayCell> 15x15 ***

Generation = 0, Population = 25.
..*...*..*.....
........*......
..*......*..*..
.........*.*...
..*.....*..*...
...............
*....*.........
...............
.......*.......
.....*.....**..
....*.....*....
....*.....*....
...........*.*.
.........*.....
...............

Generation = 1, Population = 17.
...............
........**.....
........***....
........**.**..
..........*....
...............
...............
...............
...............
...........*...
....**....*....
..........**...
..........*....
...............
...............

Generation = 2, Population = 15.
...............
........*.*....
.......*...*...
........*..*...
.........***...
...............
...............
...............
...............
...............
..........*....
.........***...
..........**...
...............
...............

Generation = 3, Population = 19.
...............
...............
.......*****...
........**.**..
.........***...
..........*....
...............
...............
...............
...............
.........***...
.........*.....
.........*.*...
...............
...............

Generation = 4, Population = 20.
...............
........***....
.......*...**..
.......*....*..
........*...*..
.........***...
...............
...............
...............
..........*....
.........**....
........**.*...
..........*....
...............
...............

Generation = 5, Population = 30.
.........*.....
........****...
.......*.****..
.......**...**.
........***.*..
.........***...
..........*....
...............
...............
.........**....
........*..*...
........*..*...
.........**....
...............
...............

*** Life<ConwayCell> 15x15 ***

Generation = 0, Population = 24.
........*......
...............
.....***.......
..........*....
...........*...
....*..........
..*............
....*.*.*......
....*.*..*.....
...........*...
*......*..*....
**.............
.*..........*..
...*.....*.....
...............

Generation = 1, Population = 17.
...............
......**.......
......*........
......*........
...............
...............
...*.*.........
...*...*.......
.......*.......
..........*....
**.............
**.............
***............
...............
...............

Generation = 2, Population = 12.
...............
......**.......
.....**........
...............
...............
...............
....*..........
....*.*........
...............
...............
**.............
...............
*.*............
.*.............
...............

Generation = 3, Population = 11.
...............
.....***.......
.....***.......
...............
...............
...............
.....*.........
.....*.........
...............
...............
...............
*..............
.*.............
.*.............
...............

Generation = 4, Population = 8.
......*........
.....*.*.......
.....*.*.......
......*........
...............
...............
...............
...............
...............
...............
...............
...............
**.............
...............
...............

Generation = 5, Population = 6.
......*........
.....*.*.......
.....*.*.......
......*........
...............
...............
...............
...............
...............
...............
...............
...............
...............
...............
...............

*** Life<ConwayCell> 15x15 ***

Generation = 0, Population = 22.
.*.............
...............
.....*.........
..*.........**.
...............
...**........*.
...............
...*.....*..*..
...*...........
....*.*.....*..
*...........*..
..*............
..**...*.......
.....*.........
...............

Generation = 1, Population = 12.
...............
...............
...............
...............
...*........**.
...............
...**..........
...............
...**..........
...............
...............
.***...........
..**...........
...............
...............

Generation = 2, Population = 7.
...............
...............
...............
...............
...............
...**..........
...............
...............
...............
...............
..*............
.*.*...........
.*.*...........
...............
...............

Generation = 3, Population = 3.
...............
...............
...............
...............
...............
...............
...............
...............
...............
...............
..*............
.*.*...........
...............
...............
...............

Generation = 4, Population = 2.
...............
...............
...............
...............
...............
...............
...............
...............
...............
...............
..*............
..*............
...............
...............
...............

Generation = 5, Population = 0.
...............
...............
...............
...............
...............
...............
...............
...............
...............
...............
...............
...............
...............
...............
...............

*** Life<ConwayCell> 15x15 ***

Generation = 0, Population = 25.
....*..........
.............*.
..*....*.......
.........*.....
......*.*...*..
.........*.....
..*.........*..
....*.......*..
.............*.
......*.....*..
.*.*..*........
...............
**.....*.*.....
........*....*.
...............

Generation = 1, Population = 13.
...............
...............
...............
.......**......
........**.....
...............
...............
............**.
............**.
...............
...............
***............
........*......
........*......
...............

Generation = 2, Population = 13.
...............
...............
...............
.......***.....
.......***.....
...............
...............
............**.
............**.
...............
.*.............
.*.............
.*.............
...............
...............

Generation = 3, Population = 13.
...............
...............
........*......
.......*.*.....
.......*.*.....
........*......
...............
............**.
............**.
...............
...............
***............
...............
...............
...............

Generation = 4, Population = 13.
...............
...............
........*......
.......*.*.....
.......*.*.....
........*......
...............
............**.
............**.
...............
.*.............
.*.............
.*.............
...............
...............

Generation = 5, Population = 13.
...............
...............
........*......
.......*.*.....
.......*.*.....
........*......
...............
............**.
............**.
...............
...............
***............
...............
...............
...............

*** Life<ConwayCell> 15x15 ***

Generation = 0, Population = 25.
.............*.
...............
......**.*.....
..*..*.........
...............
.......**......
............*..
...........*...
...............
.............*.
*..........*...
*.*.***........
......**.......
..*.*....*.*.*.
...............

Generation = 1, Population = 12.
...............
...............
......*........
......*........
...............
...............
...............
...............
...............
...............
.*...*.........
.*...***.......
.*..*.**.......
...............
...............

Generation = 2, Population = 7.
...............
...............
...............
...............
...............
...............
...............
...............
...............
...............
.....*.........
***.*..*.......
.......*.......
...............
...............

Generation = 3, Population = 4.
...............
...............
...............
...............
...............
...............
...............
...............
...............
...............
.*.............
.*....*........
.*.............
...............
...............

Generation = 4, Population = 3.
...............
...............
...............
...............
...............
...............
...............
...............
...............
...............
...............
***............
...............
...............
...............

Generation = 5, Population = 3.
...............
...............
...............
...............
...............
...............
...............
...............
...............
...............
.*.............
.*.............
.*.............
...............
...............

*** Life<ConwayCell> 15x15 ***

Generation = 0, Population = 24.
...............
...*....*......
.............*.
.*...*.........
.....*....*..*.
...............
.........*..*..
...*.........*.
.*....*...*....
*.*..........*.
*...........*..
...*...........
..........*....
...*.........*.
...............

Generation = 1, Population = 4.
...............
...............
...............
...............
...............
...............
...............
...............
.**............
*..............
.*.............
...............
...............
...............
...............

Generation = 2, Population = 3.
...............
...............
...............
...............
...............
...............
...............
...............
.*.............
*.*............
...............
...............
...............
...............
...............

Generation = 3, Population = 2.
...............
...............
...............
...............
...............
...............
...............
...............
.*.............
.*.............
...............
...............
...............
...............
...............

Generation = 4, Population = 0.
...............
...............
...............
...............
...............
...............
...............
...............
...............
...............
...............
...............
...............
...............
...............

Generation = 5, Population = 0.
...............
...............
...............
...............
...............
...............
...............
...............
...............
...............
...............
...............
...............
...............
...............

*** Life<ConwayCell> 15x15 ***

Generation = 0, Population = 23.
........*......
......*....**..
.....*...*.....
........*..*...
...............
............*..
.*.............
....*.....*....
...............
.*.............
...*...**..*...
.*....*........
....*....*.....
........*....*.
...............

Generation = 1, Population = 7.
...............
...............
..........***..
...............
...............
...............
...............
...............
...............
...............
..*....*.......
.......**......
...............
...............
...............

Generation = 2, Population = 7.
...............
...........*...
...........*...
...........*...
...............
...............
...............
...............
...............
...............
.......**......
.......**......
...............
...............
...............

Generation = 3, Population = 7.
...............
...............
..........***..
...............
...............
...............
...............
...............
...............
...............
.......**......
.......**......
...............
...............
...............

Generation = 4, Population = 7.
...............
...........*...
...........*...
...........*...
...............
...............
...............
...............
...............
...............
.......**......
.......**......
...............
...............
...............

Generation = 5, Population = 7.
...............
...............
..........***..
...............
...............
...............
...............
...............
...............
...............
.......**......
.......**......
...............
...............
...............

*** Life<ConwayCell> 15x15 ***

Generation = 0, Population = 23.
.....*.........
...*...*..*....
...............
...**..........
.........*..**.
....*..*.*..*..
**..*..........
...............
...........*...
.*..........**.
.*.............
...............
........*......
..........*....
...............

Generation = 1, Population = 12.
...............
...............
...**..........
...............
...**...*...**.
........*...**.
...............
...............
............*..
............*..
...............
...............
...............
...............
...............

Generation = 2, Population = 4.
...............
...............
...............
...............
............**.
............**.
...............
...............
...............
...............
...............
...............
...............
...............
...............

Generation = 3, Population = 4.
...............
...............
...............
...............
............**.
............**.
...............
...............
...............
...............
...............
...............
...............
...............
...............

Generation = 4, Population = 4.
...............
...............
...............
...............
............**.
............**.
...............
...............
...............
...............
...............
...............
...............
...............
...............

Generation = 5, Population = 4.
...............
...............
...............
...............
............**.
............**.
...............
...............
...............
...............
...............
...............
...............
...............
...............

*** Life<ConwayCell> 15x15 ***

Generation = 0, Population = 24.
..*............
*.....*...*....
............*..
*...*..........
...*.*.....*...
.**....*..*....
*..*.....*.....
*..............
*..............
....*..........
*.....*.*......
...............
....*..........
...............
...............

Generation = 1, Population = 14.
...............
...............
...............
....*..........
.****..........
.****.....*....
*.*............
**.............
...............
...............
...............
...............
...............
...............
...............

Generation = 2, Population = 9.
...............
...............
...............
..*.*..........
.*...*.........
*...*..........
*..............
**.............
...............
...............
...............
...............
...............
...............
...............

Generation = 3, Population = 9.
...............
...............
...............
...............
.*.***.........
**.............
*..............
**.............
...............
...............
...............
...............
...............
...............
...............

Generation = 4, Population = 11.
...............
...............
...............
....*..........
***.*..........
***.*..........
...............
**.............
...............
...............
...............
...............
...............
...............
...............

Generation = 5, Population = 9.
...............
...............
...............
.*.*...........
*.*.**.........
*.*............
..*............
...............
...............
...............
...............
...............
...............
...............
...............

*** Life<ConwayCell> 15x15 ***

Generation = 0, Population = 22.
....**.........
...........*...
.........*.....
.........*.....
**..*..........
.....*..*......
...............
..........*..*.
........**.....
...............
..**...........
.....*...**....
......*........
..*..........*.
...............

Generation = 1, Population = 3.
...............
...............
..........*....
...............
...............
...............
...............
.........*.....
.........*.....
...............
...............
...............
...............
...............
...............

Generation = 2, Population = 0.
...............
...............
...............
...............
...............
...............
...............
...............
...............
...............
...............
...............
...............
...............
...............

Generation = 3, Population = 0.
...............
...............
...............
...............
...............
...............
...............
...............
...............
...............
...............
...............
...............
...............
...............

Generation = 4, Population = 0.
...............
...............
...............
...............
...............
...............
...............
...............
...............
...............
...............
...............
...............
...............
...............

Generation = 5, Population = 0.
...............
...............
...............
...............
...............
...............
...............
...............
...............
...............
...............
...............
...............
...............
...............

*** Life<ConwayCell> 15x15 ***

Generation = 0, Population = 23.
.........*.....
...............
.*.............
...............
**.*.....*.....
....*..........
.............*.
.*.............
.*.............
.........*.....
.*.........*...
.......*..**.*.
.*..........*..
.......*.**..*.
...............

Generation = 1, Population = 11.
...............
...............
...............
***............
...............
...............
...............
...............
...............
...............
...........**..
..........**...
........**..**.
...............
...............

Generation = 2, Population = 13.
...............
...............
.*.............
.*.............
.*.............
...............
...............
...............
...............
...............
..........***..
.........**..*.
.........****..
...............
...............

Generation = 3, Population = 14.
...............
...............
...............
***............
...............
...............
...............
...............
...............
...........*...
.........****..
.............*.
.........*.**..
..........**...
...............

Generation = 4, Population = 15.
...............
...............
.*.............
.*.............
.*.............
...............
...............
...............
...............
...........**..
..........***..
.........*...*.
...........**..
..........***..
...............

Generation = 5, Population = 12.
...............
...............
...............
***............
...............
...............
...............
...............
...............
..........*.*..
..........*..*.
.............*.
.............*.
..........*.*..
...........*...

*** Life<ConwayCell> 15x15 ***

Generation = 0, Population = 24.
.*.............
*.......*...*..
..*.*..*.*.....
.........**....
...*........*..
...............
..*..........*.
........*......
.......*.......
........*..*...
...............
*...*..*.......
.*.....*.......
........*......
...............

Generation = 1, Population = 12.
...............
.*......*......
.........**....
...*....***....
...............
...............
...............
...............
.......**......
...............
...............
...............
.......**......
...............
...............

Generation = 2, Population = 5.
...............
.........*.....
..........*....
........*.*....
.........*.....
...............
...............
...............
...............
...............
...............
...............
...............
...............
...............

Generation = 3, Population = 3.
...............
...............
..........*....
..........*....
.........*.....
...............
...............
...............
...............
...............
...............
...............
...............
...............
...............

Generation = 4, Population = 2.
...............
...............
...............
.........**....
...............
...............
...............
...............
...............
...............
...............
...............
...............
...............
...............

Generation = 5, Population = 0.
...............
...............
...............
...............
...............
...............
...............
...............
...............
...............
...............
...............
...............
...............
...............

*** Life<ConwayCell> 15x15 ***

Generation = 0, Population = 24.
**........*....
..*....*.*..*..
...............
.....*.......*.
.....*.*.......
...............
............**.
......*....*...
.......*.....*.
...............
..........*....
.....*.........
.**....**......
............*..
...............

Generation = 1, Population = 6.
.*.............
.*.............
...............
......*........
......*........
...............
............*..
.............*.
...............
...............
...............
...............
...............
...............
...............

Generation = 2, Population = 0.
...............
...............
...............
...............
...............
...............
...............
...............
...............
...............
...............
...............
...............
...............
...............

Generation = 3, Population = 0.
...............
...............
...............
...............
...............
...............
...............
...............
...............
...............
...............
...............
...............
...............
...............

Generation = 4, Population = 0.
...............
...............
...............
...............
...............
...............
...............
...............
...............
...............
...............
...............
...............
...............
...............

Generation = 5, Population = 0.
...............
...............
...............
...............
...............
...............
...............
...............
...............
...............
...............
...............
...............
...............
...............

*** Life<ConwayCell> 15x15 ***

Generation = 0, Population = 22.
.....*.........
....*...*......
....*....*.....
...............
.............*.
.*.............
...............
*...*.......**.
**.............
...**..........
............*..
**..*..........
......*........
...*....*......
...............

Generation = 1, Population = 10.
...............
....**.........
...............
...............
...............
...............
...............
**.............
**.**..........
...............
...**..........
...............
...............
...............
...............

Generation = 2, Population = 7.
...............
...............
...............
...............
...............
...............
...............
***............
***............
..*............
...............
...............
...............
...............
...............

Generation = 3, Population = 6.
...............
...............
...............
...............
...............
...............
.*.............
*.*............
*..*...........
..*............
...............
...............
...............
...............
...............

Generation = 4, Population = 5.
...............
...............
...............
...............
...............
...............
.*.............
*.*............
..**...........
...............
...............
...............
...............
...............
...............

Generation = 5, Population = 6.
...............
...............
...............
...............
...............
...............
.*.............
..**...........
.***...........
...............
...............
...............
...............
...............
...............

*** Life<ConwayCell> 15x15 ***

Generation = 0, Population = 22.
..*....*...*...
.....*.......*.
*.*..........*.
.........**....
...............
...............
.*.............
.....*.........
...............
..*.......**...
..........*....
...............
.......*..*..*.
..*.*....*.....
...............

Generation = 1, Population = 6.
...............
.*..........*..
...............
...............
...............
...............
...............
...............
...............
..........**...
..........**...
...............
...............
...............
...............

Generation = 2, Population = 4.
...............
...............
...............
...............
...............
...............
...............
...............
...............
..........**...
..........**...
...............
...............
...............
...............

Generation = 3, Population = 4.
...............
...............
...............
...............
...............
...............
...............
...............
...............
..........**...
..........**...
...............
...............
...............
...............

Generation = 4, Population = 4.
...............
...............
...............
...............
...............
...............
...............
...............
...............
..........**...
..........**...
...............
...............
...............
...............

Generation = 5, Population = 4.
...............
...............
...............
...............
...............
...............
...............
...............
...............
..........**...
..........**...
...............
...............
...............
...............

*** Life<ConwayCell> 15x15 ***

Generation = 0, Population = 23.
.*.............
....*..........
...*...........
*....*...*.....
*..**..........
...*....*.*.*..
............*..
....*..........
.......*....*..
*..............
..........*....
.......*...*...
...............
*.*............
...............

Generation = 1, Population = 9.
...............
...............
....*..........
...*...........
...**....*.....
...**......*...
...........*...
...............
...............
...............
...............
...............
...............
...............
...............

Generation = 2, Population = 5.
...............
...............
...............
...*...........
..*............
...**.....*....
...............
...............
...............
...............
...............
...............
...............
...............
...............

Generation = 3, Population = 3.
...............
...............
...............
...............
..*.*..........
...*...........
...............
...............
...............
...............
...............
...............
...............
...............
...............

Generation = 4, Population = 2.
...............
...............
...............
...............
...*...........
...*...........
...............
...............
...............
...............
...............
...............
...............
...............
...............

Generation = 5, Population = 0.
...............
...............
...............
...............
...............
...............
...............
...............
...............
...............
...............
...............
...............
...............
...............

*** Life<ConwayCell> 15x15 ***

Generation = 0, Population = 23.
..*............
...*.*.........
....*........*.
.............*.
...*......**...
...............
..*.........*..
..*...*.*...*..
.......*.......
............*..
..*............
...*...........
.....*.........
*...*........*.
...............

Generation = 1, Population = 8.
...............
...**..........
....*..........
............*..
...............
...........*...
...............
.......*.......
.......*.......
...............
...............
...............
....*..........
...............
...............

Generation = 2, Population = 4.
...............
...**..........
...**..........
...............
...............
...............
...............
...............
...............
...............
...............
...............
...............
...............
...............

Generation = 3, Population = 4.
...............
...**..........
...**..........
...............
...............
...............
...............
...............
...............
...............
...............
...............
...............
...............
...............

Generation = 4, Population = 4.
...............
...**..........
...**..........
...............
...............
...............
...............
...............
...............
...............
...............
...............
...............
...............
...............

Generation = 5, Population = 4.
...............
...**..........
...**..........
...............
...............
...............
...............
...............
...............
...............
...............
...............
...............
...............
...............

*** Life<ConwayCell> 15x15 ***

Generation = 0, Population = 24.
............*..
...*.*.....*...
...............
..........*.*..
*....*..*....*.
......*....*...
...............
.*.............
....**.....*.*.
....*........*.
...............
....*..*.......
...............
...*.*....*....
...............

Generation = 1, Population = 10.
...............
...............
...........*...
...............
...........**..
...............
...............
...............
....**......*..
....**......*..
...............
...............
....*..........
...............
...............

Generation = 2, Population = 6.
...............
...............
...............
...........**..
...............
...............
...............
...............
....**.........
....**.........
...............
...............
...............
...............
...............

Generation = 3, Population = 4.
...............
...............
...............
...............
...............
...............
...............
...............
....**.........
....**.........
...............
...............
...............
...............
...............

Generation = 4, Population = 4.
...............
...............
...............
...............
...............
...............
...............
...............
....**.........
....**.........
...............
...............
...............
...............
...............

Generation = 5, Population = 4.
...............
...............
...............
...............
...............
...............
...............
...............
....**.........
....**.........
...............
...............
...............
...............
...............

*** Life<ConwayCell> 15x15 ***

Generation = 0, Population = 21.
.....*.........
..........*....
.........*.....
*........*.....
.*.............
.*.............
...*.*.*.......
*....*...*.....
....*......*...
.....*....*....
.*.........*...
...............
...............
........*..*...
...............

Generation = 1, Population = 14.
...............
...............
.........**....
...............
**.............
..*............
....*.*........
.....**........
....**....*....
..........**...
...............
...............
...............
...............
...............

Generation = 2, Population = 11.
...............
...............
...............
...............
.*.............
.*.............
......*........
......*........
....***...**...
..........**...
...............
...............
...............
...............
...............

Generation = 3, Population = 9.
...............
...............
...............
...............
...............
...............
...............
......**.......
.....**...**...
.....*....**...
...............
...............
...............
...............
...............

Generation = 4, Population = 11.
...............
...............
...............
...............
...............
...............
...............
.....***.......
.....*.*..**...
.....**...**...
...............
...............
...............
...............
...............

Generation = 5, Population = 11.
...............
...............
...............
...............
...............
...............
......*........
.....*.*.......
....*..*..**...
.....**...**...
...............
...............
...............
...............
...............

*** Life<ConwayCell> 15x15 ***

Generation = 0, Population = 23.
..........*....
.*....**....*..
...............
.*.*...........
....*..........
*...........*..
...............
...............
.....*......*..
..**.**........
....*...*......
*..............
.*.............
.*..*...*......
...............

Generation = 1, Population = 12.
...............
...............
..*............
...............
...............
...............
...............
...............
....***........
...*.**........
...***.........
...............
**.............
...............
...............

Generation = 2, Population = 8.
...............
...............
...............
...............
...............
...............
...............
.....*.........
....*.*........
...*...........
...*.**........
....*..........
...............
...............
...............

Generation = 3, Population = 9.
...............
...............
...............
...............
...............
...............
...............
.....*.........
....**.........
...*..*........
...*.*.........
....**.........
...............
...............
...............

Generation = 4, Population = 12.
...............
...............
...............
...............
...............
...............
...............
....**.........
....***........
...*..*........
...*.**........
....**.........
...............
...............
...............

Generation = 5, Population = 11.
...............
...............
...............
...............
...............
...............
...............
....*.*........
...*..*........
...*...*.......
...*..*........
....***........
...............
...............
...............

*** Life<ConwayCell> 15x15 ***

Generation = 0, Population = 24.
.*......**.*...
...............
*....*...*..*..
...............
...............
...............
.*.............
.....*..*......
..........*.*..
....*....*..*..
...............
*.........*..*.
.....*...*.....
....*..*..*....
...............

Generation = 1, Population = 8.
...............
........***....
...............
...............
...............
...............
...............
...............
.........*.*...
...........*...
...............
...............
.........**....
...............
...............

Generation = 2, Population = 5.
.........*.....
.........*.....
.........*.....
...............
...............
...............
...............
...............
..........*....
..........*....
...............
...............
...............
...............
...............

Generation = 3, Population = 3.
...............
........***....
...............
...............
...............
...............
...............
...............
...............
...............
...............
...............
...............
...............
...............

Generation = 4, Population = 3.
.........*.....
.........*.....
.........*.....
...............
...............
...............
...............
...............
...............
...............
...............
...............
...............
...............
...............

Generation = 5, Population = 3.
...............
........***....
...............
...............
...............
...............
...............
...............
...............
...............
...............
...............
...............
...............
...............

*** Life<ConwayCell> 15x15 ***

Generation = 0, Population = 25.
...*...........
.............*.
...............
..*...*......*.
....*..*..*....
.*..*..........
............*..
...*...........
.......*.......
........*.*....
..*...*........
...*..*....*...
.......**......
*.*.*..........
...............

Generation = 1, Population = 7.
...............
...............
...............
...............
...*.*.........
...............
...............
...............
...............
.......*.......
.......*.......
......*........
...*...*.......
...............
...............

Generation = 2, Population = 4.
...............
...............
...............
...............
...............
...............
...............
...............
...............
...............
......**.......
......**.......
...............
...............
...............

Generation = 3, Population = 4.
...............
...............
...............
...............
...............
...............
...............
...............
...............
...............
......**.......
......**.......
...............
...............
...............

Generation = 4, Population = 4.
...............
...............
...............
...............
...............
...............
...............
...............
...............
...............
......**.......
......**.......
...............
...............
...............

Generation = 5, Population = 4.
...............
...............
...............
...............
...............
...............
...............
...............
...............
...............
......**.......
......**.......
...............
...............
...............

*** Life<ConwayCell> 15x15 ***

Generation = 0, Population = 25.
.......*..*....
...*....**...*.
...............
*.....*........
...............
...............
......*........
............*..
.....*.....*...
...*.*....*....
....*.....*..*.
.....*..**.....
*.........*..*.
......*........
...............

Generation = 1, Population = 15.
........**.....
........**.....
...............
...............
...............
...............
...............
...............
....*......*...
.....*....**...
....**....*....
.........**....
.........*.....
...............
...............

Generation = 2, Population = 15.
........**.....
........**.....
...............
...............
...............
...............
...............
...............
..........**...
.....*....**...
....**.........
.........**....
.........**....
...............
...............

Generation = 3, Population = 18.
........**.....
........**.....
...............
...............
...............
...............
...............
...............
..........**...
....**....**...
....**...*.*...
.........**....
.........**....
...............
...............

Generation = 4, Population = 18.
........**.....
........**.....
...............
...............
...............
...............
...............
...............
..........**...
....**...*..*..
....**...*.*...
........*..*...
.........**....
...............
...............

Generation = 5, Population = 20.
........**.....
........**.....
...............
...............
...............
...............
...............
...............
..........**...
....**...*..*..
....**..**.**..
........*..*...
.........**....
...............
...............

