*** Life<FredkinCell> 50x50 ***

Generation = 0, Population = 96.
--------------------------------------------------
------------------------------0-------------------
------0-------------------------------------------
-0-----------------0------------------------------
-------------------------------------------------0
-------------------------0------------------------
-----------------------0---------0----------------
--------------------------------------------------
---------------0-----------------------------0----
---------------------------0--------0-------------
--------------------------------------------------
------------------0-----------------------0-------
--------------------0--0---0----------------------
-------0------------------0-----------------------
-----------------0----------0---------------------
--------------------0------------------0----------
--------------------------------------------------
-0----0----------------------0-----0------0-------
----------------------------0----------------0----
-----------------0------0-------------------------
------------------0-------------------------------
-----0-------------0------------------------------
--------0---------------------------0-------------
--------------------------------------------------
--------------0------0-----------------------0----
-------0------------------------------------------
------------------0---------0-------0-------------
---------------0----------------------------------
---------------------0-------0--------------------
--0--------------------0-------------00-----------
--------------------------------------------------
-----------------0-------0------------------------
-0--------0------------------00--------------0----
------------------------------------0-------------
--------------0------------00--------0------------
-------------------------------------------0------
-----0---------0-------------------------00-------
------0-0-------------------0---------------------
----------------------------------0---------------
------------0-------------------------------------
---------0----------------0--0-------------------0
0-----------------------------0-------------------
--------------------------------------------------
0-----0----0-----------------------0-----0--------
-------------------0-------------------0----------
--------------------0-----------------------------
-0---------------------0-----0-0------------------
--00-----------------0----------------------------
------------------------0-------------------------
---------------------0----------------------------

Generation = 1, Population = 331.
------------------------------0-------------------
------0----------------------0-0------------------
-0---0-0-----------0----------0-------------------
0-0---0-----------0-0----------------------------0
-0-----------------0-----0----------------------0-
-----------------------00-0------0---------------0
----------------------0-00------0-0---------------
---------------0-------0---------0-----------0----
--------------0-0----------0--------0-------0-0---
---------------0----------0-0------0-0-------0----
------------------0--------0--------0-----0-------
-----------------0-00--0---0-------------0-0------
-------0----------00-00-0---0-------------0-------
------0-0--------0--0--0-0--0---------------------
-------0--------0-0-0-----00-0---------0----------
-----------------0-0-0------0---------0-0---------
-0----0-------------0--------0-----0---0--0-------
0-0--0-0----------------------0---0-0----0-0-0----
-0----0----------0------0--0-------0------0-0-0---
----------------0------0-0--0----------------0----
-----0------------------0-------------------------
----0-0-0-----------0---------------0-------------
-----0-0-0---------0---------------0-0------------
--------0-----0------0--------------0--------0----
-------0-----0-0----0-0---------------------0-0---
------0-0-----0---0--0------0-------0--------0----
-------0-------0-0-0-------0-0-----0-0------------
--------------0-0-0--0------00------0-------------
--0------------0----0-00----0-0------00-----------
-0-0-----------------00-0----0------0110----------
--0--------------0-----0-0-----------00-----------
-0--------0-----0-0-----0-0--00--------------0----
0-0------0-0-----0-------0--0110----0-------0-0---
-0--------0---0------------0000----0---------0----
-------------0-0----------0110--------0----0------
-----0--------00-----------00--------0---0--0-----
----0---0-----0-0-----------0-----------011-------
---------0-----0-----------0-0----0------00-------
------0-0---0---------------0----0-0--------------
---------0-0-0------------0--0----0--------------0
0-------0-0-0------------0-00-------------------0-
-0-------0----------------0----0-----------------0
------0----0------------------0----0-----0--------
-0---0-0--0-0------0--------------0-0--00-0-------
0-----0----0------0----------------0--0-00--------
-0-------------------0-0-----0-0-------0----------
0--0----------------000-0---0---0-----------------
--110---------------0-000----0-0------------------
--00-------------------0-0------------------------
--------------------0-0-0-------------------------

*** Life<FredkinCell> 10x10 ***

Generation = 0, Population = 60.
------0-00
0-0--0-000
00-0-00000
00---000-0
-0--00-000
0--0-0-0-0
-000-00-00
-000-00-00
-0--00--00
-0000-000-

Generation = 1, Population = 53.
0-0----0--
10--01---1
1-0--11-11
-100-111--
010-1101-1
-0-10-01--
--11-1-0-1
011-01--11
0-00--0-1-
0----01---

Generation = 2, Population = 52.
10-0000-00
21001--0-2
2-1--2-02-
0--102----
1----2-2--
-1-----20-
00---20102
--2-1-----
-0-1-01-2-
100001-00-

Generation = 3, Population = 54.
--0-1-101-
3211-1-1-3
-02003--3-
-1-2-31-0-
2--0-3-3--
020----3--
1----3-213
01-0-1-0-1
-1-2--2030
21-1--11-0

Generation = 4, Population = 52.
1-10-0212-
43---202--
-13--4--4-
-20-042110
31-1-404--
1-1---0--0
-01104-3--
---1-20---
0---0----1
3--201--01

Generation = 5, Population = 61.
2021--3230
--11131-0-
-2-0--105-
-3-21-3221
----1-----
2-2100130-
-122----13
01-2--1--1
11-2102--2
410312111-

*** Life<FredkinCell> 5x5 ***

Generation = 0, Population = 25.
00000
00000
00000
00000
00000

Generation = 1, Population = 12.
-111-
1---1
1---1
1---1
-111-

Generation = 2, Population = 12.
-2-2-
2-0-2
-0-0-
2-0-2
-2-2-

Generation = 3, Population = 4.
--1--
-----
1---1
-----
--1--

*** Life<FredkinCell> 20x20 ***

Generation = 0, Population = 200.
0-0-0-0-0-0-0-0-0-0-
0-0-0-0-0-0-0-0-0-0-
0-0-0-0-0-0-0-0-0-0-
0-0-0-0-0-0-0-0-0-0-
0-0-0-0-0-0-0-0-0-0-
0-0-0-0-0-0-0-0-0-0-
0-0-0-0-0-0-0-0-0-0-
0-0-0-0-0-0-0-0-0-0-
0-0-0-0-0-0-0-0-0-0-
0-0-0-0-0-0-0-0-0-0-
0-0-0-0-0-0-0-0-0-0-
0-0-0-0-0-0-0-0-0-0-
0-0-0-0-0-0-0-0-0-0-
0-0-0-0-0-0-0-0-0-0-
0-0-0-0-0-0-0-0-0-0-
0-0-0-0-0-0-0-0-0-0-
0-0-0-0-0-0-0-0-0-0-
0-0-0-0-0-0-0-0-0-0-
0-0-0-0-0-0-0-0-0-0-
0-0-0-0-0-0-0-0-0-0-

Generation = 4, Population = 36.
----------------2---
----------------0---
----------------1---
0-0-0-0-0-0-0-0---0-
----------------0---
----------------0---
----------------0---
----------------0---
----------------0---
----------------0---
----------------0---
----------------0---
----------------0---
----------------0---
----------------0---
----------------0---
0-0-0-0-0-0-0-0---0-
----------------1---
----------------0---
----------------2---

Generation = 8, Population = 36.
------------2-------
------------0-------
------------1-------
------------0-------
------------1-------
------------0-------
------------1-------
0-0-0-0-0-0---0-0-0-
------------0-------
------------0-------
------------0-------
------------0-------
0-0-0-0-0-0---0-0-0-
------------1-------
------------0-------
------------1-------
------------0-------
------------1-------
------------0-------
------------2-------

Generation = 12, Population = 60.
--------1-------3---
--------0-------0---
--------0-------2---
0-0-0-0---0---0---0-
--------1-------2---
--------0-------0---
--------1-------1---
--------0-----------
1-1-1-1---3-2-3---0-
--------2-------2---
--------2-------2---
1-1-1-1---3-2-3---0-
--------0-----------
--------1-------1---
--------0-------0---
--------1-------2---
0-0-0-0---0---0---0-
--------0-------2---
--------0-------0---
--------1-------3---

Generation = 16, Population = 36.
----2---------------
----0---------------
----1---------------
----0---------------
1-1---3-3-2-1-4-3-2-
----2---------------
----2---------------
----1---------------
----2---------------
----4---------------
----4---------------
----2---------------
----1---------------
----2---------------
----2---------------
1-1---3-3-2-1-4-3-2-
----0---------------
----1---------------
----0---------------
----2---------------

Generation = 20, Population = 68.
--3-4-3---2-3-2-4-2-
1-------1-----------
0-------1-----------
1---2---1-----------
1-------3-------3---
2-------2-----------
1-------2-----------
1-------2-----------
--1-2-2---4-2-3-0-0-
3-------5-----------
3-------5-----------
--1-2-2---4-2-3-0-0-
1-------2-----------
1-------2-----------
2-------2-----------
1-------3-------3---
1---2---1-----------
0-------1-----------
1-------1-----------
--3-4-3---2-3-2-4-2-

*** Life<FredkinCell> 20x20 ***

Generation = 0, Population = 200.
-0-0-0-0-0-0-0-0-0-0
-0-0-0-0-0-0-0-0-0-0
-0-0-0-0-0-0-0-0-0-0
-0-0-0-0-0-0-0-0-0-0
-0-0-0-0-0-0-0-0-0-0
-0-0-0-0-0-0-0-0-0-0
-0-0-0-0-0-0-0-0-0-0
-0-0-0-0-0-0-0-0-0-0
-0-0-0-0-0-0-0-0-0-0
-0-0-0-0-0-0-0-0-0-0
-0-0-0-0-0-0-0-0-0-0
-0-0-0-0-0-0-0-0-0-0
-0-0-0-0-0-0-0-0-0-0
-0-0-0-0-0-0-0-0-0-0
-0-0-0-0-0-0-0-0-0-0
-0-0-0-0-0-0-0-0-0-0
-0-0-0-0-0-0-0-0-0-0
-0-0-0-0-0-0-0-0-0-0
-0-0-0-0-0-0-0-0-0-0
-0-0-0-0-0-0-0-0-0-0

Generation = 4, Population = 36.
---2----------------
---0----------------
---1----------------
-0---0-0-0-0-0-0-0-0
---0----------------
---0----------------
---0----------------
---0----------------
---0----------------
---0----------------
---0----------------
---0----------------
---0----------------
---0----------------
---0----------------
---0----------------
-0---0-0-0-0-0-0-0-0
---1----------------
---0----------------
---2----------------

Generation = 8, Population = 36.
-------2------------
-------0------------
-------1------------
-------0------------
-------1------------
-------0------------
-------1------------
-0-0-0---0-0-0-0-0-0
-------0------------
-------0------------
-------0------------
-------0------------
-0-0-0---0-0-0-0-0-0
-------1------------
-------0------------
-------1------------
-------0------------
-------1------------
-------0------------
-------2------------

Generation = 12, Population = 60.
---3-------1--------
---0-------0--------
---2-------0--------
-0---0---0---0-0-0-0
---2-------1--------
---0-------0--------
---1-------1--------
-----------0--------
-0---3-2-3---1-1-1-1
---2-------2--------
---2-------2--------
-0---3-2-3---1-1-1-1
-----------0--------
---1-------1--------
---0-------0--------
---2-------1--------
-0---0---0---0-0-0-0
---2-------0--------
---0-------0--------
---3-------1--------

Generation = 16, Population = 36.
---------------2----
---------------0----
---------------1----
---------------0----
-2-3-4-1-2-3-3---1-1
---------------2----
---------------2----
---------------1----
---------------2----
---------------4----
---------------4----
---------------2----
---------------1----
---------------2----
---------------2----
-2-3-4-1-2-3-3---1-1
---------------0----
---------------1----
---------------0----
---------------2----

Generation = 20, Population = 68.
-2-4-2-3-2---3-4-3--
-----------1-------1
-----------1-------0
-----------1---2---1
---3-------3-------1
-----------2-------2
-----------2-------1
-----------2-------1
-0-0-3-2-4---2-2-1--
-----------5-------3
-----------5-------3
-0-0-3-2-4---2-2-1--
-----------2-------1
-----------2-------1
-----------2-------2
---3-------3-------1
-----------1---2---1
-----------1-------0
-----------1-------1
-2-4-2-3-2---3-4-3--

*** Life<FredkinCell> 25x25 ***

Generation = 0, Population = 493.
0--000000000000000-00000-
00-000-000-00-000000--000
00----0--00-00-0000-00-00
-00000000-00000-0000-0000
00000000000000-00-0000000
000000-0000---00000--00--
0000-0--000-0-00000-00-0-
-00000000000000000000000-
00000-0--000000000000-000
-000-00000000000---00000-
000000000000-00--0000-00-
0--00000000----00000-----
0-000-0000-0000000-00-000
000-00000000-00-000000000
-00000--000000000000-0-00
00000-0-00000000000-000-0
0000-0----00-0000-0000000
00--00000000000-000000000
0000000-000000000-0000000
00000000-000-000-000000-0
-00--00-00000000--0-00000
00--00000000--0000000-00-
0000-0-00--000-00--000000
00-000000-000000--00000-0
-00000000-0000000000000--

Generation = 1, Population = 281.
1-0-11-111-11-111-0---1--
1---1---11--1-----1-00---
-1---0100---1-----1-1--11
011111-1--11--1-11---11-1
------1--1-11---1-11---1-
1---110---1------11-01-00
---1---01-10101---10-1-10
01--111-1--1-1-----1-111-
1------001------111-1-1-1
01-1---11---1-----01---1-
-11-1-------0--0--1--0--0
--01-1-----00-0-1-110---0
-0-11-1--1---111-1-1-0-1-
-11-1111--11-11-1-1-111-1
01-1--0-1---1--1--------1
---------1--1----11------
1-1--100-011-1-11-11---11
1100--1-11--1-1-1-------1
1-11--1-----1--1--1----11
---11--1-1-1-1-101-1--1--
01--011------1-1-0--11-1-
-10-1-11-11100--1-111-110
1------11-011--1--01-1-1-
-1-11-1-1-----110-----101
---11111---11111--1111-00

Generation = 2, Population = 292.
2----2-22--2--2-2-100--0-
2-0020002-0--00000---1-00
02-00--1--0-200-0-2-20-2-
12-----2--2-00---200-22-2
-000-02-0---20002--2---20
-0--2---0-20-00--22-1--1-
-00-0-01---1-120----0-02-
-20-2-2----202--00020-2-0
-0-000---20000-02----02--
--0---0----020-00-12-0--0
-------00----0---0-0--0-1
-0-------001-01--0-210--1
01----2-0------2---2-10-0
-22----2--220----0-022202
1-0---10--0-2----0--00002
-000-0-0-2--2----2-----0-
202-021101-2--02-0-20-02-
2---0--02---20--20-0---0-
20-2-02-0---2--20------2-
-0----0-----02-2--0----00
1---1--0--0----2-1-0-2-2-
0-1-20--02221-00-0-2--2-1
-000--0--0-2---200--0---0
-----02-200-----10--002--
-00-2-22--02--2--02--20--

Generation = 3, Population = 309.
3000-30--1--1-31302-1-11-
-01131----1------11002-11
1-0------0-----01-3031031
-3--11-3-03-1110131-0-3-3
-1-1013011----1-3013-0---
1-0-3---1-3-0110-33021---
01-----2----1231---------
03-0-13--0-313-0-----1-1-
11-1110-03---1--3------0-
----0---10--31---02--1011
-11----11-0----0-11--0---
-10---0001-2--2-11-3--00-
12---0-0----01--0-0--2-1-
0--0--13-0---1-011--3--13
------211-10-0--0-0--11--
0--101--03--30000-10-00--
-1-0-3--1---0-131---1-131
-10-101-3----1-0---1----1
----01-010-0-00---10--0--
01011-1-0-01-3-------0111
2-002-----1--1---201--030
1120-1--13332-111--3---12
-111-0111--3----110-1--11
---1-13031-0--1--1-0-1-01
011--1-3---311-1--31---0-

Generation = 4, Population = 285.
411-1-122--2--4--1-0202--
2--2-----1-01-0-0--1---2-
--1----1010-20----41-2142
-4----04014-2-21-42-1-404
-202-2-12-0--0-------1--0
2--04-0020---2--0-41--0--
1--100---01-2-4200100--2-
14-12----1-42401----0--20
----22---4000-0---1------
0-0-1-0-2--04-00---20--22
0--01---2---00--02--010-1
-2-1--1-120----0----101-1
---11-------1---------0--
1-2-1--40--2---1-210-2--4
----0--2--212--1-01-----2
--0-----14---1111--10-1-0
-221---1---21----012-0---
2-10--20---0-2-1---2----2
2---1--1-101-11--02-0-1--
--1220-111-------1--01-2-
--1---1----0-2-2-3--1---1
-2-122----44302--014---23
--22-12220-------21---022
0-02-24-42-------2-10--1-
1-2-2224-00--22-0-4-1201-

